Day41/waveform.vcd
$date
	Mon Jun 30 23:28:38 2025
$end
$version
	Icarus Verilog
$end
$timescale
	1ps
$end
$scope module tb_vending_machine $end
$var wire 1 ! vend $end
$var wire 2 " status [1:0] $end
$var wire 10 # change [9:0] $end
$var reg 1 $ clk $end
$var reg 1 % confirm $end
$var reg 3 & note_in [2:0] $end
$var reg 1 ' reset $end
$var reg 3 ( select_item [2:0] $end
$scope module uut $end
$var wire 1 $ clk $end
$var wire 1 % confirm $end
$var wire 3 ) note_in [2:0] $end
$var wire 1 ' reset $end
$var wire 3 * select_item [2:0] $end
$var reg 10 + balance [9:0] $end
$var reg 10 , change [9:0] $end
$var reg 10 - item_price [9:0] $end
$var reg 2 . status [1:0] $end
$var reg 1 ! vend $end
$scope function get_item_price $end
$upscope $end
$scope function get_note_value $end
$upscope $end
$upscope $end
$scope task insert_note $end
$var reg 3 / note [2:0] $end
$upscope $end
$scope task reset_dut $end
$upscope $end
$scope task test_case $end
$var reg 1 0 expect_vend $end
$var reg 10 1 expected_change [9:0] $end
$var reg 3 2 item [2:0] $end
$scope begin $ivl_foreach0 $end
$var integer 32 3 i [31:0] $end
$upscope $end
$upscope $end
$upscope $end
$enddefinitions $end
$comment Show the parameter values. $end
$dumpall
$end
#0
$dumpvars
b0 3
b0 2
b0 1
10
bx /
b0 .
bx -
b0 ,
b0 +
b0 *
b0 )
b0 (
1'
b0 &
0%
0$
b0 #
b0 "
0!
$end
#5000
1$
#10000
0$
b0 /
0'
#15000
b1010 +
b1010 -
1$
#20000
0$
1%
b1 3
b111 &
b111 )
#25000
b10 "
b10 .
b0 +
1!
1$
#30000
0$
0%
#35000
b0 "
b0 .
0!
1$
#40000
0$
#45000
1$
#50000
b0 &
b0 )
1'
1$
b1010 1
#55000
0$
#60000
b10100 +
1$
b1 &
b1 )
b1 /
b0 3
0'
#65000
0$
#70000
b10 "
b10 .
b0 +
b1010 #
b1010 ,
1!
1$
1%
b1 3
b111 &
b111 )
#75000
0$
#80000
b0 "
b0 .
b0 #
b0 ,
0!
1$
0%
#85000
0$
#90000
1$
#95000
0$
#100000
1$
b0 &
b0 )
1'
b0 1
b100 2
#105000
0$
#110000
b10100 +
1$
b1 &
b1 )
b0 3
0'
#115000
0$
#120000
b101000 +
1$
b1 3
b1 &
b1 )
#125000
0$
#130000
b110010 +
1$
b0 /
b10 3
b0 &
b0 )
#135000
0$
#140000
b10 "
b10 .
b0 +
1!
b110010 -
1$
1%
b100 (
b100 *
b11 3
b111 &
b111 )
#145000
0$
#150000
b0 "
b0 .
0!
1$
0%
#155000
0$
#160000
1$
#165000
0$
#170000
1$
b0 (
b0 *
b0 &
b0 )
1'
00
b11 2
#175000
0$
#180000
b1010 +
b1010 -
1$
b0 3
0'
#185000
0$
#190000
b1 "
b1 .
b11110 -
1$
1%
b11 (
b11 *
b1 3
b111 &
b111 )
#195000
0$
#200000
b0 "
b0 .
1$
0%
#205000
0$
#210000
1$
#215000
0$
#220000
b0 +
1$
b0 (
b0 *
b0 &
b0 )
1'
b111 2
#225000
0$
#230000
b1100100 +
b1010 -
1$
b11 &
b11 )
b11 /
b0 3
0'
#235000
0$
#240000
b11 "
b11 .
b0 -
1$
1%
b111 (
b111 *
b1 3
b111 &
b111 )
#245000
0$
#250000
b0 "
b0 .
1$
0%
#255000
0$
#260000
1$
#265000
0$
#270000
b0 +
1$
b0 (
b0 *
b0 &
b0 )
1'
10
b1001011 1
b10 2
#275000
0$
#280000
b1100100 +
b1010 -
1$
b11 &
b11 )
b0 3
0'
#285000
0$
#290000
b10 "
b10 .
b0 +
b1001011 #
b1001011 ,
1!
b11001 -
1$
1%
b10 (
b10 *
b1 3
b111 &
b111 )
#295000
0$
#300000
b0 "
b0 .
b0 #
b0 ,
0!
1$
0%
#305000
0$
#310000
1$
#315000
0$
#320000
1$
b0 (
b0 *
b0 &
b0 )
1'
00
b0 1
b1 2
#325000
0$
#330000
b10100 +
b1010 -
1$
b1 &
b1 )
b1 /
b0 3
0'
#335000
0$
#340000
b10 "
b10 .
b0 +
1!
b10100 -
1$
1%
b1 (
b1 *
b1 3
b111 &
b111 )
#345000
0$
#350000
b0 "
b0 .
0!
1$
0%
#355000
0$
#360000
1$
#365000
0$
#370000
1$
b0 (
b0 *
b0 &
b0 )
1'
#375000
0$
#380000
b1010 -
1$
b110 &
b110 )
0'
#385000
0$
#390000
b1 "
b1 .
1$
1%
b111 &
b111 )
#395000
0$
#400000
b0 "
b0 .
1$
b0 &
b0 )
1'
10
b110010000 1
b101 2
0%
#405000
0$
#410000
b111110100 +
1$
b101 &
b101 )
b101 /
b0 3
0'
#415000
0$
#420000
b10 "
b10 .
b0 +
b110010000 #
b110010000 ,
1!
b1100100 -
1$
1%
b101 (
b101 *
b1 3
b111 &
b111 )
#425000
0$
#430000
b0 "
b0 .
b0 #
b0 ,
0!
1$
0%
#435000
0$
#440000
1$
#445000
0$
#450000
1$
b0 (
b0 *
b0 &
b0 )
1'
b0 1
b110 2
#455000
0$
#460000
b10100 +
b1010 -
1$
b1 &
b1 )
b1 /
b0 3
0'
#465000
0$
#470000
b101000 +
1$
b1 3
b1 &
b1 )
#475000
0$
#480000
b111100 +
1$
b10 3
b1 &
b1 )
#485000
0$
#490000
b1010000 +
1$
b11 3
b1 &
b1 )
#495000
0$
#500000
b1100100 +
1$
b100 3
b1 &
b1 )
#505000
0$
#510000
b1111000 +
1$
b101 3
b1 &
b1 )
#515000
0$
#520000
b10001100 +
1$
b110 3
b1 &
b1 )
#525000
0$
#530000
b10100000 +
1$
b111 3
b1 &
b1 )
#535000
0$
#540000
b10110100 +
1$
b1000 3
b1 &
b1 )
#545000
0$
#550000
b11001000 +
1$
b1001 3
b1 &
b1 )
#555000
0$
#560000
b11 "
b11 .
b0 -
1$
1%
b110 (
b110 *
b1010 3
b111 &
b111 )
#565000
0$
#570000
b0 "
b0 .
1$
0%
#575000
0$
#580000
1$
#585000
0$
#590000
b0 +
1$
b0 (
b0 *
b0 &
b0 )
1'
#595000
0$
#600000
b1010 -
1$
b110 &
b110 )
0'
#605000
0$
#610000
b1 "
b1 .
b11001 -
1$
1%
b10 (
b10 *
b111 &
b111 )
#615000
0$
#620000
b0 "
b0 .
1$
b0 (
b0 *
b0 &
b0 )
1'
b101 1
b10 2
0%
#625000
0$
#630000
b1010 +
b1010 -
1$
b0 /
b0 3
0'
#635000
0$
#640000
b10100 +
1$
b1 3
b0 &
b0 )
#645000
0$
#650000
b11110 +
1$
b10 3
b0 &
b0 )
#655000
0$
#660000
b10 "
b10 .
b0 +
b101 #
b101 ,
1!
b11001 -
1$
1%
b10 (
b10 *
b11 3
b111 &
b111 )
#665000
0$
#670000
b0 "
b0 .
b0 #
b0 ,
0!
1$
0%
